[
    {
      "city": "Churchill",
      "Hotels": [
        {
          "name": "tempor"
        },
        {
          "name": "sit"
        },
        {
          "name": "id"
        },
        {
          "name": "duis"
        },
        {
          "name": "sint"
        },
        {
          "name": "cupidatat"
        },
        {
          "name": "dolore"
        }
      ]
    },
    {
      "city": "Gloucester",
      "Hotels": [
        {
          "name": "aliqua"
        },
        {
          "name": "elit"
        },
        {
          "name": "eiusmod"
        },
        {
          "name": "est"
        },
        {
          "name": "et"
        },
        {
          "name": "fugiat"
        },
        {
          "name": "adipisicing"
        },
        {
          "name": "quis"
        }
      ]
    },
    {
      "city": "Brandywine",
      "Hotels": [
        {
          "name": "consequat"
        },
        {
          "name": "id"
        },
        {
          "name": "occaecat"
        },
        {
          "name": "est"
        },
        {
          "name": "nulla"
        },
        {
          "name": "eiusmod"
        },
        {
          "name": "voluptate"
        }
      ]
    },
    {
      "city": "Catharine",
      "Hotels": [
        {
          "name": "nulla"
        },
        {
          "name": "commodo"
        },
        {
          "name": "magna"
        }
      ]
    },
    {
      "city": "Orick",
      "Hotels": [
        {
          "name": "eu"
        },
        {
          "name": "labore"
        },
        {
          "name": "Lorem"
        },
        {
          "name": "aliqua"
        },
        {
          "name": "aliqua"
        }
      ]
    },
    {
      "city": "Cowiche",
      "Hotels": [
        {
          "name": "esse"
        },
        {
          "name": "sunt"
        },
        {
          "name": "exercitation"
        },
        {
          "name": "sit"
        },
        {
          "name": "deserunt"
        },
        {
          "name": "velit"
        }
      ]
    },
    {
      "city": "Boling",
      "Hotels": [
        {
          "name": "est"
        },
        {
          "name": "cillum"
        },
        {
          "name": "enim"
        },
        {
          "name": "deserunt"
        },
        {
          "name": "pariatur"
        },
        {
          "name": "ex"
        },
        {
          "name": "culpa"
        }
      ]
    },
    {
      "city": "Dola",
      "Hotels": [
        {
          "name": "adipisicing"
        },
        {
          "name": "dolore"
        },
        {
          "name": "sint"
        },
        {
          "name": "sunt"
        },
        {
          "name": "aute"
        },
        {
          "name": "veniam"
        },
        {
          "name": "nostrud"
        },
        {
          "name": "non"
        },
        {
          "name": "laborum"
        },
        {
          "name": "cupidatat"
        }
      ]
    },
    {
      "city": "Westwood",
      "Hotels": [
        {
          "name": "culpa"
        },
        {
          "name": "consequat"
        },
        {
          "name": "sunt"
        },
        {
          "name": "nisi"
        },
        {
          "name": "minim"
        },
        {
          "name": "ad"
        }
      ]
    },
    {
      "city": "Independence",
      "Hotels": [
        {
          "name": "eu"
        },
        {
          "name": "sunt"
        },
        {
          "name": "eiusmod"
        },
        {
          "name": "deserunt"
        },
        {
          "name": "mollit"
        },
        {
          "name": "aute"
        }
      ]
    },
    {
      "city": "Nadine",
      "Hotels": [
        {
          "name": "ea"
        },
        {
          "name": "esse"
        },
        {
          "name": "sit"
        },
        {
          "name": "quis"
        }
      ]
    },
    {
      "city": "Albany",
      "Hotels": [
        {
          "name": "esse"
        },
        {
          "name": "magna"
        },
        {
          "name": "do"
        },
        {
          "name": "consequat"
        },
        {
          "name": "magna"
        }
      ]
    },
    {
      "city": "Blanco",
      "Hotels": [
        {
          "name": "labore"
        },
        {
          "name": "nostrud"
        },
        {
          "name": "ad"
        },
        {
          "name": "eu"
        },
        {
          "name": "velit"
        },
        {
          "name": "id"
        },
        {
          "name": "culpa"
        },
        {
          "name": "quis"
        },
        {
          "name": "exercitation"
        },
        {
          "name": "velit"
        }
      ]
    },
    {
      "city": "Kenvil",
      "Hotels": [
        {
          "name": "Lorem"
        },
        {
          "name": "Lorem"
        },
        {
          "name": "ad"
        },
        {
          "name": "velit"
        },
        {
          "name": "mollit"
        },
        {
          "name": "cupidatat"
        }
      ]
    },
    {
      "city": "Levant",
      "Hotels": [
        {
          "name": "enim"
        },
        {
          "name": "id"
        },
        {
          "name": "officia"
        },
        {
          "name": "sit"
        }
      ]
    },
    {
      "city": "Golconda",
      "Hotels": [
        {
          "name": "id"
        },
        {
          "name": "tempor"
        },
        {
          "name": "ea"
        },
        {
          "name": "ad"
        },
        {
          "name": "reprehenderit"
        }
      ]
    },
    {
      "city": "Chelsea",
      "Hotels": [
        {
          "name": "ipsum"
        },
        {
          "name": "dolor"
        },
        {
          "name": "mollit"
        },
        {
          "name": "voluptate"
        },
        {
          "name": "sunt"
        },
        {
          "name": "dolor"
        },
        {
          "name": "sint"
        }
      ]
    },
    {
      "city": "Waverly",
      "Hotels": [
        {
          "name": "amet"
        },
        {
          "name": "excepteur"
        },
        {
          "name": "non"
        },
        {
          "name": "irure"
        },
        {
          "name": "sunt"
        },
        {
          "name": "deserunt"
        },
        {
          "name": "irure"
        },
        {
          "name": "ex"
        },
        {
          "name": "excepteur"
        }
      ]
    },
    {
      "city": "Trail",
      "Hotels": [
        {
          "name": "ex"
        },
        {
          "name": "pariatur"
        },
        {
          "name": "proident"
        },
        {
          "name": "in"
        },
        {
          "name": "ut"
        },
        {
          "name": "occaecat"
        }
      ]
    },
    {
      "city": "Hall",
      "Hotels": [
        {
          "name": "amet"
        },
        {
          "name": "anim"
        },
        {
          "name": "laborum"
        },
        {
          "name": "enim"
        },
        {
          "name": "ut"
        },
        {
          "name": "amet"
        },
        {
          "name": "aliquip"
        }
      ]
    },
    {
      "city": "Bennett",
      "Hotels": [
        {
          "name": "ut"
        },
        {
          "name": "laboris"
        },
        {
          "name": "mollit"
        },
        {
          "name": "cillum"
        },
        {
          "name": "mollit"
        },
        {
          "name": "aliqua"
        },
        {
          "name": "pariatur"
        },
        {
          "name": "voluptate"
        },
        {
          "name": "eu"
        },
        {
          "name": "laborum"
        }
      ]
    },
    {
      "city": "Warren",
      "Hotels": [
        {
          "name": "velit"
        },
        {
          "name": "irure"
        },
        {
          "name": "eiusmod"
        },
        {
          "name": "qui"
        },
        {
          "name": "reprehenderit"
        },
        {
          "name": "minim"
        },
        {
          "name": "esse"
        },
        {
          "name": "duis"
        }
      ]
    },
    {
      "city": "Cashtown",
      "Hotels": [
        {
          "name": "aliquip"
        },
        {
          "name": "excepteur"
        },
        {
          "name": "anim"
        }
      ]
    },
    {
      "city": "Dundee",
      "Hotels": [
        {
          "name": "dolor"
        },
        {
          "name": "consectetur"
        },
        {
          "name": "occaecat"
        },
        {
          "name": "nostrud"
        },
        {
          "name": "aliquip"
        },
        {
          "name": "proident"
        },
        {
          "name": "sit"
        },
        {
          "name": "magna"
        },
        {
          "name": "cupidatat"
        },
        {
          "name": "velit"
        }
      ]
    },
    {
      "city": "Lydia",
      "Hotels": [
        {
          "name": "in"
        },
        {
          "name": "officia"
        },
        {
          "name": "aute"
        },
        {
          "name": "cupidatat"
        },
        {
          "name": "dolor"
        },
        {
          "name": "proident"
        }
      ]
    },
    {
      "city": "Bridgetown",
      "Hotels": [
        {
          "name": "magna"
        },
        {
          "name": "magna"
        },
        {
          "name": "aliqua"
        },
        {
          "name": "consequat"
        },
        {
          "name": "exercitation"
        }
      ]
    },
    {
      "city": "Maybell",
      "Hotels": [
        {
          "name": "pariatur"
        },
        {
          "name": "quis"
        },
        {
          "name": "reprehenderit"
        },
        {
          "name": "incididunt"
        },
        {
          "name": "proident"
        },
        {
          "name": "voluptate"
        },
        {
          "name": "id"
        }
      ]
    },
    {
      "city": "Greenbush",
      "Hotels": [
        {
          "name": "cillum"
        },
        {
          "name": "et"
        },
        {
          "name": "magna"
        },
        {
          "name": "exercitation"
        },
        {
          "name": "irure"
        },
        {
          "name": "culpa"
        },
        {
          "name": "sunt"
        }
      ]
    },
    {
      "city": "Brantleyville",
      "Hotels": [
        {
          "name": "duis"
        },
        {
          "name": "nulla"
        },
        {
          "name": "irure"
        },
        {
          "name": "cillum"
        },
        {
          "name": "id"
        }
      ]
    },
    {
      "city": "Connerton",
      "Hotels": [
        {
          "name": "irure"
        },
        {
          "name": "nulla"
        },
        {
          "name": "in"
        }
      ]
    },
    {
      "city": "Goodville",
      "Hotels": [
        {
          "name": "aute"
        },
        {
          "name": "sunt"
        },
        {
          "name": "deserunt"
        },
        {
          "name": "veniam"
        },
        {
          "name": "est"
        },
        {
          "name": "exercitation"
        },
        {
          "name": "in"
        },
        {
          "name": "ex"
        }
      ]
    },
    {
      "city": "Summertown",
      "Hotels": [
        {
          "name": "tempor"
        },
        {
          "name": "aliqua"
        },
        {
          "name": "eu"
        },
        {
          "name": "eu"
        },
        {
          "name": "laborum"
        }
      ]
    },
    {
      "city": "Allamuchy",
      "Hotels": [
        {
          "name": "fugiat"
        },
        {
          "name": "amet"
        },
        {
          "name": "cupidatat"
        },
        {
          "name": "non"
        },
        {
          "name": "enim"
        },
        {
          "name": "voluptate"
        },
        {
          "name": "laboris"
        },
        {
          "name": "minim"
        },
        {
          "name": "veniam"
        }
      ]
    },
    {
      "city": "Robbins",
      "Hotels": [
        {
          "name": "ipsum"
        },
        {
          "name": "sunt"
        },
        {
          "name": "exercitation"
        },
        {
          "name": "sit"
        }
      ]
    },
    {
      "city": "Conestoga",
      "Hotels": [
        {
          "name": "deserunt"
        },
        {
          "name": "voluptate"
        },
        {
          "name": "duis"
        },
        {
          "name": "fugiat"
        },
        {
          "name": "reprehenderit"
        },
        {
          "name": "sint"
        },
        {
          "name": "eiusmod"
        },
        {
          "name": "irure"
        },
        {
          "name": "in"
        }
      ]
    },
    {
      "city": "Linganore",
      "Hotels": [
        {
          "name": "ullamco"
        },
        {
          "name": "officia"
        },
        {
          "name": "amet"
        },
        {
          "name": "sint"
        }
      ]
    },
    {
      "city": "Grahamtown",
      "Hotels": [
        {
          "name": "dolor"
        },
        {
          "name": "nulla"
        },
        {
          "name": "amet"
        },
        {
          "name": "exercitation"
        },
        {
          "name": "cupidatat"
        },
        {
          "name": "eiusmod"
        },
        {
          "name": "consequat"
        }
      ]
    },
    {
      "city": "Juntura",
      "Hotels": [
        {
          "name": "esse"
        },
        {
          "name": "do"
        },
        {
          "name": "id"
        },
        {
          "name": "anim"
        }
      ]
    },
    {
      "city": "Saddlebrooke",
      "Hotels": [
        {
          "name": "enim"
        },
        {
          "name": "elit"
        },
        {
          "name": "occaecat"
        },
        {
          "name": "aliqua"
        },
        {
          "name": "magna"
        },
        {
          "name": "amet"
        },
        {
          "name": "irure"
        },
        {
          "name": "mollit"
        },
        {
          "name": "mollit"
        },
        {
          "name": "nisi"
        }
      ]
    },
    {
      "city": "Chicopee",
      "Hotels": [
        {
          "name": "non"
        },
        {
          "name": "excepteur"
        },
        {
          "name": "qui"
        },
        {
          "name": "tempor"
        },
        {
          "name": "in"
        },
        {
          "name": "non"
        },
        {
          "name": "amet"
        },
        {
          "name": "id"
        },
        {
          "name": "adipisicing"
        },
        {
          "name": "esse"
        }
      ]
    },
    {
      "city": "Nogal",
      "Hotels": [
        {
          "name": "nostrud"
        },
        {
          "name": "ea"
        },
        {
          "name": "fugiat"
        },
        {
          "name": "ullamco"
        },
        {
          "name": "nisi"
        },
        {
          "name": "laborum"
        },
        {
          "name": "consequat"
        }
      ]
    },
    {
      "city": "Ticonderoga",
      "Hotels": [
        {
          "name": "in"
        },
        {
          "name": "commodo"
        },
        {
          "name": "labore"
        },
        {
          "name": "reprehenderit"
        },
        {
          "name": "quis"
        }
      ]
    },
    {
      "city": "Ona",
      "Hotels": [
        {
          "name": "est"
        },
        {
          "name": "nulla"
        },
        {
          "name": "cillum"
        },
        {
          "name": "veniam"
        },
        {
          "name": "cillum"
        },
        {
          "name": "occaecat"
        }
      ]
    },
    {
      "city": "Boomer",
      "Hotels": [
        {
          "name": "excepteur"
        },
        {
          "name": "minim"
        },
        {
          "name": "reprehenderit"
        }
      ]
    },
    {
      "city": "Byrnedale",
      "Hotels": [
        {
          "name": "labore"
        },
        {
          "name": "non"
        },
        {
          "name": "ad"
        },
        {
          "name": "ut"
        },
        {
          "name": "amet"
        },
        {
          "name": "et"
        },
        {
          "name": "consequat"
        }
      ]
    },
    {
      "city": "Wattsville",
      "Hotels": [
        {
          "name": "mollit"
        },
        {
          "name": "labore"
        },
        {
          "name": "commodo"
        },
        {
          "name": "adipisicing"
        }
      ]
    }
  ]